[gd_resource type="TileSet" load_steps=96 format=2]

[ext_resource path="res://tilesets/brick.png" type="Texture" id=1]

[sub_resource type="OccluderPolygon2D" id=1]
polygon = PoolVector2Array( 32, 32, 0, 32, 0, 0, 32, 0 )

[sub_resource type="OccluderPolygon2D" id=2]
polygon = PoolVector2Array( 32, 32, 0, 32, 0, 0, 32, 0 )

[sub_resource type="OccluderPolygon2D" id=3]
polygon = PoolVector2Array( 32, 32, 0, 32, 0, 0, 32, 0 )

[sub_resource type="OccluderPolygon2D" id=4]
polygon = PoolVector2Array( 32, 32, 0, 32, 0, 0, 32, 0 )

[sub_resource type="OccluderPolygon2D" id=5]
polygon = PoolVector2Array( 32, 32, 0, 32, 0, 0, 32, 0 )

[sub_resource type="OccluderPolygon2D" id=6]
polygon = PoolVector2Array( 32, 32, 0, 32, 0, 0, 32, 0 )

[sub_resource type="OccluderPolygon2D" id=7]
polygon = PoolVector2Array( 32, 32, 0, 32, 0, 0, 32, 0 )

[sub_resource type="OccluderPolygon2D" id=8]
polygon = PoolVector2Array( 32, 32, 0, 32, 0, 0, 32, 0 )

[sub_resource type="OccluderPolygon2D" id=9]
polygon = PoolVector2Array( 32, 32, 0, 32, 0, 0, 32, 0 )

[sub_resource type="OccluderPolygon2D" id=10]
polygon = PoolVector2Array( 32, 32, 0, 32, 0, 0, 32, 0 )

[sub_resource type="OccluderPolygon2D" id=11]
polygon = PoolVector2Array( 32, 32, 0, 32, 0, 0, 32, 0 )

[sub_resource type="OccluderPolygon2D" id=12]
polygon = PoolVector2Array( 32, 32, 0, 32, 0, 0, 32, 0 )

[sub_resource type="OccluderPolygon2D" id=13]
polygon = PoolVector2Array( 32, 32, 0, 32, 0, 0, 32, 0 )

[sub_resource type="OccluderPolygon2D" id=14]
polygon = PoolVector2Array( 32, 32, 0, 32, 0, 0, 32, 0 )

[sub_resource type="OccluderPolygon2D" id=15]
polygon = PoolVector2Array( 32, 32, 0, 32, 0, 0, 32, 0 )

[sub_resource type="OccluderPolygon2D" id=16]
polygon = PoolVector2Array( 32, 32, 0, 32, 0, 0, 32, 0 )

[sub_resource type="OccluderPolygon2D" id=17]
polygon = PoolVector2Array( 32, 32, 0, 32, 0, 0, 32, 0 )

[sub_resource type="OccluderPolygon2D" id=18]
polygon = PoolVector2Array( 32, 32, 0, 32, 0, 0, 32, 0 )

[sub_resource type="OccluderPolygon2D" id=19]
polygon = PoolVector2Array( 32, 32, 0, 32, 0, 0, 32, 0 )

[sub_resource type="OccluderPolygon2D" id=20]
polygon = PoolVector2Array( 32, 32, 0, 32, 0, 0, 32, 0 )

[sub_resource type="OccluderPolygon2D" id=21]
polygon = PoolVector2Array( 32, 32, 0, 32, 0, 0, 32, 0 )

[sub_resource type="OccluderPolygon2D" id=22]
polygon = PoolVector2Array( 32, 32, 0, 32, 0, 0, 32, 0 )

[sub_resource type="OccluderPolygon2D" id=23]
polygon = PoolVector2Array( 32, 32, 0, 32, 0, 0, 32, 0 )

[sub_resource type="OccluderPolygon2D" id=24]
polygon = PoolVector2Array( 32, 32, 0, 32, 0, 0, 32, 0 )

[sub_resource type="OccluderPolygon2D" id=25]
polygon = PoolVector2Array( 32, 32, 0, 32, 0, 0, 32, 0 )

[sub_resource type="OccluderPolygon2D" id=26]
polygon = PoolVector2Array( 32, 32, 0, 32, 0, 0, 32, 0 )

[sub_resource type="OccluderPolygon2D" id=27]
polygon = PoolVector2Array( 32, 32, 0, 32, 0, 0, 32, 0 )

[sub_resource type="OccluderPolygon2D" id=28]
polygon = PoolVector2Array( 32, 32, 0, 32, 0, 0, 32, 0 )

[sub_resource type="OccluderPolygon2D" id=29]
polygon = PoolVector2Array( 32, 32, 0, 32, 0, 0, 32, 0 )

[sub_resource type="OccluderPolygon2D" id=30]
polygon = PoolVector2Array( 32, 32, 0, 32, 0, 0, 32, 0 )

[sub_resource type="OccluderPolygon2D" id=31]
polygon = PoolVector2Array( 32, 32, 0, 32, 0, 0, 32, 0 )

[sub_resource type="OccluderPolygon2D" id=32]
polygon = PoolVector2Array( 32, 32, 0, 32, 0, 0, 32, 0 )

[sub_resource type="OccluderPolygon2D" id=33]
polygon = PoolVector2Array( 32, 32, 0, 32, 0, 0, 32, 0 )

[sub_resource type="OccluderPolygon2D" id=34]
polygon = PoolVector2Array( 32, 32, 0, 32, 0, 0, 32, 0 )

[sub_resource type="OccluderPolygon2D" id=35]
polygon = PoolVector2Array( 32, 32, 0, 32, 0, 0, 32, 0 )

[sub_resource type="OccluderPolygon2D" id=36]
polygon = PoolVector2Array( 32, 32, 0, 32, 0, 0, 32, 0 )

[sub_resource type="OccluderPolygon2D" id=37]
polygon = PoolVector2Array( 32, 32, 0, 32, 0, 0, 32, 0 )

[sub_resource type="OccluderPolygon2D" id=38]
polygon = PoolVector2Array( 32, 32, 0, 32, 0, 0, 32, 0 )

[sub_resource type="OccluderPolygon2D" id=39]
polygon = PoolVector2Array( 32, 32, 0, 32, 0, 0, 32, 0 )

[sub_resource type="OccluderPolygon2D" id=40]
polygon = PoolVector2Array( 32, 32, 0, 32, 0, 0, 32, 0 )

[sub_resource type="OccluderPolygon2D" id=41]
polygon = PoolVector2Array( 32, 32, 0, 32, 0, 0, 32, 0 )

[sub_resource type="OccluderPolygon2D" id=42]
polygon = PoolVector2Array( 32, 32, 0, 32, 0, 0, 32, 0 )

[sub_resource type="OccluderPolygon2D" id=43]
polygon = PoolVector2Array( 32, 32, 0, 32, 0, 0, 32, 0 )

[sub_resource type="OccluderPolygon2D" id=44]
polygon = PoolVector2Array( 32, 32, 0, 32, 0, 0, 32, 0 )

[sub_resource type="OccluderPolygon2D" id=45]
polygon = PoolVector2Array( 32, 32, 0, 32, 0, 0, 32, 0 )

[sub_resource type="OccluderPolygon2D" id=46]
polygon = PoolVector2Array( 32, 32, 0, 32, 0, 0, 32, 0 )

[sub_resource type="OccluderPolygon2D" id=47]
polygon = PoolVector2Array( 32, 32, 0, 32, 0, 0, 32, 0 )

[sub_resource type="ConvexPolygonShape2D" id=48]
points = PoolVector2Array( 32, 32, 0, 32, 0, 0, 32, 0 )

[sub_resource type="ConvexPolygonShape2D" id=49]
points = PoolVector2Array( 32, 32, 0, 32, 0, 0, 32, 0 )

[sub_resource type="ConvexPolygonShape2D" id=50]
points = PoolVector2Array( 32, 32, 0, 32, 0, 0, 32, 0 )

[sub_resource type="ConvexPolygonShape2D" id=51]
points = PoolVector2Array( 32, 32, 0, 32, 0, 0, 32, 0 )

[sub_resource type="ConvexPolygonShape2D" id=52]
points = PoolVector2Array( 32, 32, 0, 32, 0, 0, 32, 0 )

[sub_resource type="ConvexPolygonShape2D" id=53]
points = PoolVector2Array( 32, 32, 0, 32, 0, 0, 32, 0 )

[sub_resource type="ConvexPolygonShape2D" id=54]
points = PoolVector2Array( 32, 32, 0, 32, 0, 0, 32, 0 )

[sub_resource type="ConvexPolygonShape2D" id=55]
points = PoolVector2Array( 32, 32, 0, 32, 0, 0, 32, 0 )

[sub_resource type="ConvexPolygonShape2D" id=56]
points = PoolVector2Array( 32, 32, 0, 32, 0, 0, 32, 0 )

[sub_resource type="ConvexPolygonShape2D" id=57]
points = PoolVector2Array( 32, 32, 0, 32, 0, 0, 32, 0 )

[sub_resource type="ConvexPolygonShape2D" id=58]
points = PoolVector2Array( 32, 32, 0, 32, 0, 0, 32, 0 )

[sub_resource type="ConvexPolygonShape2D" id=59]
points = PoolVector2Array( 32, 32, 0, 32, 0, 0, 32, 0 )

[sub_resource type="ConvexPolygonShape2D" id=60]
points = PoolVector2Array( 32, 32, 0, 32, 0, 0, 32, 0 )

[sub_resource type="ConvexPolygonShape2D" id=61]
points = PoolVector2Array( 32, 32, 0, 32, 0, 0, 32, 0 )

[sub_resource type="ConvexPolygonShape2D" id=62]
points = PoolVector2Array( 32, 32, 0, 32, 0, 0, 32, 0 )

[sub_resource type="ConvexPolygonShape2D" id=63]
points = PoolVector2Array( 32, 32, 0, 32, 0, 0, 32, 0 )

[sub_resource type="ConvexPolygonShape2D" id=64]
points = PoolVector2Array( 32, 32, 0, 32, 0, 0, 32, 0 )

[sub_resource type="ConvexPolygonShape2D" id=65]
points = PoolVector2Array( 32, 32, 0, 32, 0, 0, 32, 0 )

[sub_resource type="ConvexPolygonShape2D" id=66]
points = PoolVector2Array( 32, 32, 0, 32, 0, 0, 32, 0 )

[sub_resource type="ConvexPolygonShape2D" id=67]
points = PoolVector2Array( 32, 32, 0, 32, 0, 0, 32, 0 )

[sub_resource type="ConvexPolygonShape2D" id=68]
points = PoolVector2Array( 32, 32, 0, 32, 0, 0, 32, 0 )

[sub_resource type="ConvexPolygonShape2D" id=69]
points = PoolVector2Array( 32, 32, 0, 32, 0, 0, 32, 0 )

[sub_resource type="ConvexPolygonShape2D" id=70]
points = PoolVector2Array( 32, 32, 0, 32, 0, 0, 32, 0 )

[sub_resource type="ConvexPolygonShape2D" id=71]
points = PoolVector2Array( 32, 32, 0, 32, 0, 0, 32, 0 )

[sub_resource type="ConvexPolygonShape2D" id=72]
points = PoolVector2Array( 32, 32, 0, 32, 0, 0, 32, 0 )

[sub_resource type="ConvexPolygonShape2D" id=73]
points = PoolVector2Array( 32, 32, 0, 32, 0, 0, 32, 0 )

[sub_resource type="ConvexPolygonShape2D" id=74]
points = PoolVector2Array( 32, 32, 0, 32, 0, 0, 32, 0 )

[sub_resource type="ConvexPolygonShape2D" id=75]
points = PoolVector2Array( 32, 32, 0, 32, 0, 0, 32, 0 )

[sub_resource type="ConvexPolygonShape2D" id=76]
points = PoolVector2Array( 32, 32, 0, 32, 0, 0, 32, 0 )

[sub_resource type="ConvexPolygonShape2D" id=77]
points = PoolVector2Array( 32, 32, 0, 32, 0, 0, 32, 0 )

[sub_resource type="ConvexPolygonShape2D" id=78]
points = PoolVector2Array( 32, 32, 0, 32, 0, 0, 32, 0 )

[sub_resource type="ConvexPolygonShape2D" id=79]
points = PoolVector2Array( 32, 32, 0, 32, 0, 0, 32, 0 )

[sub_resource type="ConvexPolygonShape2D" id=80]
points = PoolVector2Array( 32, 32, 0, 32, 0, 0, 32, 0 )

[sub_resource type="ConvexPolygonShape2D" id=81]
points = PoolVector2Array( 32, 32, 0, 32, 0, 0, 32, 0 )

[sub_resource type="ConvexPolygonShape2D" id=82]
points = PoolVector2Array( 32, 32, 0, 32, 0, 0, 32, 0 )

[sub_resource type="ConvexPolygonShape2D" id=83]
points = PoolVector2Array( 32, 32, 0, 32, 0, 0, 32, 0 )

[sub_resource type="ConvexPolygonShape2D" id=84]
points = PoolVector2Array( 32, 32, 0, 32, 0, 0, 32, 0 )

[sub_resource type="ConvexPolygonShape2D" id=85]
points = PoolVector2Array( 32, 32, 0, 32, 0, 0, 32, 0 )

[sub_resource type="ConvexPolygonShape2D" id=86]
points = PoolVector2Array( 32, 32, 0, 32, 0, 0, 32, 0 )

[sub_resource type="ConvexPolygonShape2D" id=87]
points = PoolVector2Array( 32, 32, 0, 32, 0, 0, 32, 0 )

[sub_resource type="ConvexPolygonShape2D" id=88]
points = PoolVector2Array( 32, 32, 0, 32, 0, 0, 32, 0 )

[sub_resource type="ConvexPolygonShape2D" id=89]
points = PoolVector2Array( 32, 32, 0, 32, 0, 0, 32, 0 )

[sub_resource type="ConvexPolygonShape2D" id=90]
points = PoolVector2Array( 32, 32, 0, 32, 0, 0, 32, 0 )

[sub_resource type="ConvexPolygonShape2D" id=91]
points = PoolVector2Array( 32, 32, 0, 32, 0, 0, 32, 0 )

[sub_resource type="ConvexPolygonShape2D" id=92]
points = PoolVector2Array( 32, 32, 0, 32, 0, 0, 32, 0 )

[sub_resource type="ConvexPolygonShape2D" id=93]
points = PoolVector2Array( 32, 32, 0, 32, 0, 0, 32, 0 )

[sub_resource type="ConvexPolygonShape2D" id=94]
points = PoolVector2Array( 32, 32, 0, 32, 0, 0, 32, 0 )

[resource]
0/name = "simple.png 0"
0/texture = ExtResource( 1 )
0/tex_offset = Vector2( 0, 0 )
0/modulate = Color( 1, 1, 1, 1 )
0/region = Rect2( 0, 0, 384, 128 )
0/tile_mode = 1
0/autotile/bitmask_mode = 1
0/autotile/bitmask_flags = [ Vector2( 0, 0 ), 144, Vector2( 0, 1 ), 146, Vector2( 0, 2 ), 18, Vector2( 0, 3 ), 16, Vector2( 1, 0 ), 176, Vector2( 1, 1 ), 178, Vector2( 1, 2 ), 50, Vector2( 1, 3 ), 48, Vector2( 2, 0 ), 184, Vector2( 2, 1 ), 186, Vector2( 2, 2 ), 58, Vector2( 2, 3 ), 56, Vector2( 3, 0 ), 152, Vector2( 3, 1 ), 154, Vector2( 3, 2 ), 26, Vector2( 3, 3 ), 24, Vector2( 4, 0 ), 187, Vector2( 4, 1 ), 434, Vector2( 4, 2 ), 182, Vector2( 4, 3 ), 250, Vector2( 5, 0 ), 440, Vector2( 5, 1 ), 510, Vector2( 5, 2 ), 447, Vector2( 5, 3 ), 62, Vector2( 6, 0 ), 248, Vector2( 6, 1 ), 507, Vector2( 6, 2 ), 255, Vector2( 6, 3 ), 59, Vector2( 7, 0 ), 190, Vector2( 7, 1 ), 218, Vector2( 7, 2 ), 155, Vector2( 7, 3 ), 442, Vector2( 8, 0 ), 432, Vector2( 8, 1 ), 438, Vector2( 8, 2 ), 446, Vector2( 8, 3 ), 54, Vector2( 9, 0 ), 506, Vector2( 9, 1 ), 254, Vector2( 9, 2 ), 511, Vector2( 9, 3 ), 63, Vector2( 10, 0 ), 504, Vector2( 10, 2 ), 443, Vector2( 10, 3 ), 191, Vector2( 11, 0 ), 216, Vector2( 11, 1 ), 251, Vector2( 11, 2 ), 219, Vector2( 11, 3 ), 27 ]
0/autotile/icon_coordinate = Vector2( 0, 0 )
0/autotile/tile_size = Vector2( 32, 32 )
0/autotile/spacing = 0
0/autotile/occluder_map = [ Vector2( 0, 0 ), SubResource( 1 ), Vector2( 0, 1 ), SubResource( 2 ), Vector2( 0, 2 ), SubResource( 3 ), Vector2( 0, 3 ), SubResource( 4 ), Vector2( 1, 0 ), SubResource( 5 ), Vector2( 1, 1 ), SubResource( 6 ), Vector2( 1, 2 ), SubResource( 7 ), Vector2( 1, 3 ), SubResource( 8 ), Vector2( 2, 0 ), SubResource( 9 ), Vector2( 2, 1 ), SubResource( 10 ), Vector2( 2, 2 ), SubResource( 11 ), Vector2( 2, 3 ), SubResource( 12 ), Vector2( 3, 0 ), SubResource( 13 ), Vector2( 3, 1 ), SubResource( 14 ), Vector2( 3, 2 ), SubResource( 15 ), Vector2( 3, 3 ), SubResource( 16 ), Vector2( 4, 0 ), SubResource( 17 ), Vector2( 4, 1 ), SubResource( 18 ), Vector2( 4, 2 ), SubResource( 19 ), Vector2( 4, 3 ), SubResource( 20 ), Vector2( 5, 0 ), SubResource( 21 ), Vector2( 5, 1 ), SubResource( 22 ), Vector2( 5, 2 ), SubResource( 23 ), Vector2( 5, 3 ), SubResource( 24 ), Vector2( 6, 0 ), SubResource( 25 ), Vector2( 6, 1 ), SubResource( 26 ), Vector2( 6, 2 ), SubResource( 27 ), Vector2( 6, 3 ), SubResource( 28 ), Vector2( 7, 0 ), SubResource( 29 ), Vector2( 7, 1 ), SubResource( 30 ), Vector2( 7, 2 ), SubResource( 31 ), Vector2( 7, 3 ), SubResource( 32 ), Vector2( 8, 0 ), SubResource( 33 ), Vector2( 8, 1 ), SubResource( 34 ), Vector2( 8, 2 ), SubResource( 35 ), Vector2( 8, 3 ), SubResource( 36 ), Vector2( 9, 0 ), SubResource( 37 ), Vector2( 9, 1 ), SubResource( 38 ), Vector2( 9, 2 ), SubResource( 39 ), Vector2( 9, 3 ), SubResource( 40 ), Vector2( 10, 0 ), SubResource( 41 ), Vector2( 10, 2 ), SubResource( 42 ), Vector2( 10, 3 ), SubResource( 43 ), Vector2( 11, 0 ), SubResource( 44 ), Vector2( 11, 1 ), SubResource( 45 ), Vector2( 11, 2 ), SubResource( 46 ), Vector2( 11, 3 ), SubResource( 47 ) ]
0/autotile/navpoly_map = [  ]
0/autotile/priority_map = [  ]
0/autotile/z_index_map = [  ]
0/occluder_offset = Vector2( 0, 0 )
0/navigation_offset = Vector2( 0, 0 )
0/shape_offset = Vector2( 0, 0 )
0/shape_transform = Transform2D( 1, 0, 0, 1, 0, 0 )
0/shape = SubResource( 48 )
0/shape_one_way = false
0/shape_one_way_margin = 1.0
0/shapes = [ {
"autotile_coord": Vector2( 0, 0 ),
"one_way": false,
"one_way_margin": 1.0,
"shape": SubResource( 48 ),
"shape_transform": Transform2D( 1, 0, 0, 1, 0, 0 )
}, {
"autotile_coord": Vector2( 0, 1 ),
"one_way": false,
"one_way_margin": 1.0,
"shape": SubResource( 49 ),
"shape_transform": Transform2D( 1, 0, 0, 1, 0, 0 )
}, {
"autotile_coord": Vector2( 0, 2 ),
"one_way": false,
"one_way_margin": 1.0,
"shape": SubResource( 50 ),
"shape_transform": Transform2D( 1, 0, 0, 1, 0, 0 )
}, {
"autotile_coord": Vector2( 0, 3 ),
"one_way": false,
"one_way_margin": 1.0,
"shape": SubResource( 51 ),
"shape_transform": Transform2D( 1, 0, 0, 1, 0, 0 )
}, {
"autotile_coord": Vector2( 1, 0 ),
"one_way": false,
"one_way_margin": 1.0,
"shape": SubResource( 52 ),
"shape_transform": Transform2D( 1, 0, 0, 1, 0, 0 )
}, {
"autotile_coord": Vector2( 1, 1 ),
"one_way": false,
"one_way_margin": 1.0,
"shape": SubResource( 53 ),
"shape_transform": Transform2D( 1, 0, 0, 1, 0, 0 )
}, {
"autotile_coord": Vector2( 1, 2 ),
"one_way": false,
"one_way_margin": 1.0,
"shape": SubResource( 54 ),
"shape_transform": Transform2D( 1, 0, 0, 1, 0, 0 )
}, {
"autotile_coord": Vector2( 1, 3 ),
"one_way": false,
"one_way_margin": 1.0,
"shape": SubResource( 55 ),
"shape_transform": Transform2D( 1, 0, 0, 1, 0, 0 )
}, {
"autotile_coord": Vector2( 2, 0 ),
"one_way": false,
"one_way_margin": 1.0,
"shape": SubResource( 56 ),
"shape_transform": Transform2D( 1, 0, 0, 1, 0, 0 )
}, {
"autotile_coord": Vector2( 2, 1 ),
"one_way": false,
"one_way_margin": 1.0,
"shape": SubResource( 57 ),
"shape_transform": Transform2D( 1, 0, 0, 1, 0, 0 )
}, {
"autotile_coord": Vector2( 2, 2 ),
"one_way": false,
"one_way_margin": 1.0,
"shape": SubResource( 58 ),
"shape_transform": Transform2D( 1, 0, 0, 1, 0, 0 )
}, {
"autotile_coord": Vector2( 2, 3 ),
"one_way": false,
"one_way_margin": 1.0,
"shape": SubResource( 59 ),
"shape_transform": Transform2D( 1, 0, 0, 1, 0, 0 )
}, {
"autotile_coord": Vector2( 3, 0 ),
"one_way": false,
"one_way_margin": 1.0,
"shape": SubResource( 60 ),
"shape_transform": Transform2D( 1, 0, 0, 1, 0, 0 )
}, {
"autotile_coord": Vector2( 3, 1 ),
"one_way": false,
"one_way_margin": 1.0,
"shape": SubResource( 61 ),
"shape_transform": Transform2D( 1, 0, 0, 1, 0, 0 )
}, {
"autotile_coord": Vector2( 3, 2 ),
"one_way": false,
"one_way_margin": 1.0,
"shape": SubResource( 62 ),
"shape_transform": Transform2D( 1, 0, 0, 1, 0, 0 )
}, {
"autotile_coord": Vector2( 3, 3 ),
"one_way": false,
"one_way_margin": 1.0,
"shape": SubResource( 63 ),
"shape_transform": Transform2D( 1, 0, 0, 1, 0, 0 )
}, {
"autotile_coord": Vector2( 4, 0 ),
"one_way": false,
"one_way_margin": 1.0,
"shape": SubResource( 64 ),
"shape_transform": Transform2D( 1, 0, 0, 1, 0, 0 )
}, {
"autotile_coord": Vector2( 4, 1 ),
"one_way": false,
"one_way_margin": 1.0,
"shape": SubResource( 65 ),
"shape_transform": Transform2D( 1, 0, 0, 1, 0, 0 )
}, {
"autotile_coord": Vector2( 4, 2 ),
"one_way": false,
"one_way_margin": 1.0,
"shape": SubResource( 66 ),
"shape_transform": Transform2D( 1, 0, 0, 1, 0, 0 )
}, {
"autotile_coord": Vector2( 4, 3 ),
"one_way": false,
"one_way_margin": 1.0,
"shape": SubResource( 67 ),
"shape_transform": Transform2D( 1, 0, 0, 1, 0, 0 )
}, {
"autotile_coord": Vector2( 5, 0 ),
"one_way": false,
"one_way_margin": 1.0,
"shape": SubResource( 68 ),
"shape_transform": Transform2D( 1, 0, 0, 1, 0, 0 )
}, {
"autotile_coord": Vector2( 5, 1 ),
"one_way": false,
"one_way_margin": 1.0,
"shape": SubResource( 69 ),
"shape_transform": Transform2D( 1, 0, 0, 1, 0, 0 )
}, {
"autotile_coord": Vector2( 5, 2 ),
"one_way": false,
"one_way_margin": 1.0,
"shape": SubResource( 70 ),
"shape_transform": Transform2D( 1, 0, 0, 1, 0, 0 )
}, {
"autotile_coord": Vector2( 5, 3 ),
"one_way": false,
"one_way_margin": 1.0,
"shape": SubResource( 71 ),
"shape_transform": Transform2D( 1, 0, 0, 1, 0, 0 )
}, {
"autotile_coord": Vector2( 6, 0 ),
"one_way": false,
"one_way_margin": 1.0,
"shape": SubResource( 72 ),
"shape_transform": Transform2D( 1, 0, 0, 1, 0, 0 )
}, {
"autotile_coord": Vector2( 6, 1 ),
"one_way": false,
"one_way_margin": 1.0,
"shape": SubResource( 73 ),
"shape_transform": Transform2D( 1, 0, 0, 1, 0, 0 )
}, {
"autotile_coord": Vector2( 6, 2 ),
"one_way": false,
"one_way_margin": 1.0,
"shape": SubResource( 74 ),
"shape_transform": Transform2D( 1, 0, 0, 1, 0, 0 )
}, {
"autotile_coord": Vector2( 6, 3 ),
"one_way": false,
"one_way_margin": 1.0,
"shape": SubResource( 75 ),
"shape_transform": Transform2D( 1, 0, 0, 1, 0, 0 )
}, {
"autotile_coord": Vector2( 7, 0 ),
"one_way": false,
"one_way_margin": 1.0,
"shape": SubResource( 76 ),
"shape_transform": Transform2D( 1, 0, 0, 1, 0, 0 )
}, {
"autotile_coord": Vector2( 7, 1 ),
"one_way": false,
"one_way_margin": 1.0,
"shape": SubResource( 77 ),
"shape_transform": Transform2D( 1, 0, 0, 1, 0, 0 )
}, {
"autotile_coord": Vector2( 7, 2 ),
"one_way": false,
"one_way_margin": 1.0,
"shape": SubResource( 78 ),
"shape_transform": Transform2D( 1, 0, 0, 1, 0, 0 )
}, {
"autotile_coord": Vector2( 7, 3 ),
"one_way": false,
"one_way_margin": 1.0,
"shape": SubResource( 79 ),
"shape_transform": Transform2D( 1, 0, 0, 1, 0, 0 )
}, {
"autotile_coord": Vector2( 8, 0 ),
"one_way": false,
"one_way_margin": 1.0,
"shape": SubResource( 80 ),
"shape_transform": Transform2D( 1, 0, 0, 1, 0, 0 )
}, {
"autotile_coord": Vector2( 8, 1 ),
"one_way": false,
"one_way_margin": 1.0,
"shape": SubResource( 81 ),
"shape_transform": Transform2D( 1, 0, 0, 1, 0, 0 )
}, {
"autotile_coord": Vector2( 8, 2 ),
"one_way": false,
"one_way_margin": 1.0,
"shape": SubResource( 82 ),
"shape_transform": Transform2D( 1, 0, 0, 1, 0, 0 )
}, {
"autotile_coord": Vector2( 8, 3 ),
"one_way": false,
"one_way_margin": 1.0,
"shape": SubResource( 83 ),
"shape_transform": Transform2D( 1, 0, 0, 1, 0, 0 )
}, {
"autotile_coord": Vector2( 9, 0 ),
"one_way": false,
"one_way_margin": 1.0,
"shape": SubResource( 84 ),
"shape_transform": Transform2D( 1, 0, 0, 1, 0, 0 )
}, {
"autotile_coord": Vector2( 9, 1 ),
"one_way": false,
"one_way_margin": 1.0,
"shape": SubResource( 85 ),
"shape_transform": Transform2D( 1, 0, 0, 1, 0, 0 )
}, {
"autotile_coord": Vector2( 9, 2 ),
"one_way": false,
"one_way_margin": 1.0,
"shape": SubResource( 86 ),
"shape_transform": Transform2D( 1, 0, 0, 1, 0, 0 )
}, {
"autotile_coord": Vector2( 9, 3 ),
"one_way": false,
"one_way_margin": 1.0,
"shape": SubResource( 87 ),
"shape_transform": Transform2D( 1, 0, 0, 1, 0, 0 )
}, {
"autotile_coord": Vector2( 10, 0 ),
"one_way": false,
"one_way_margin": 1.0,
"shape": SubResource( 88 ),
"shape_transform": Transform2D( 1, 0, 0, 1, 0, 0 )
}, {
"autotile_coord": Vector2( 11, 0 ),
"one_way": false,
"one_way_margin": 1.0,
"shape": SubResource( 89 ),
"shape_transform": Transform2D( 1, 0, 0, 1, 0, 0 )
}, {
"autotile_coord": Vector2( 11, 1 ),
"one_way": false,
"one_way_margin": 1.0,
"shape": SubResource( 90 ),
"shape_transform": Transform2D( 1, 0, 0, 1, 0, 0 )
}, {
"autotile_coord": Vector2( 11, 2 ),
"one_way": false,
"one_way_margin": 1.0,
"shape": SubResource( 91 ),
"shape_transform": Transform2D( 1, 0, 0, 1, 0, 0 )
}, {
"autotile_coord": Vector2( 11, 3 ),
"one_way": false,
"one_way_margin": 1.0,
"shape": SubResource( 92 ),
"shape_transform": Transform2D( 1, 0, 0, 1, 0, 0 )
}, {
"autotile_coord": Vector2( 10, 2 ),
"one_way": false,
"one_way_margin": 1.0,
"shape": SubResource( 93 ),
"shape_transform": Transform2D( 1, 0, 0, 1, 0, 0 )
}, {
"autotile_coord": Vector2( 10, 3 ),
"one_way": false,
"one_way_margin": 1.0,
"shape": SubResource( 94 ),
"shape_transform": Transform2D( 1, 0, 0, 1, 0, 0 )
} ]
0/z_index = 0
