[gd_scene load_steps=3 format=2]

[ext_resource path="res://objects/path_follower.gd" type="Script" id=1]

[sub_resource type="Animation" id=1]
resource_name = "loopit"
loop = true
tracks/0/type = "value"
tracks/0/path = NodePath(".:unit_offset")
tracks/0/interp = 1
tracks/0/loop_wrap = true
tracks/0/imported = false
tracks/0/enabled = true
tracks/0/keys = {
"times": PoolRealArray( 0, 1 ),
"transitions": PoolRealArray( 1, 1 ),
"update": 0,
"values": [ 0.0, 1.0 ]
}

[node name="PathFollow2D" type="PathFollow2D"]
position = Vector2( -140.906, -333.268 )
rotation = 0.561827
rotate = false
script = ExtResource( 1 )

[node name="AnimationPlayer" type="AnimationPlayer" parent="."]
playback_process_mode = 0
anims/loopit = SubResource( 1 )
