[gd_scene load_steps=9 format=2]

[ext_resource path="res://sounds/sndBreak.wav" type="AudioStream" id=1]
[ext_resource path="res://objects/explosion/explosion.gd" type="Script" id=2]

[sub_resource type="Animation" id=1]
resource_name = "explode"
length = 2.5
tracks/0/type = "value"
tracks/0/path = NodePath("AudioStreamPlayer2D:playing")
tracks/0/interp = 1
tracks/0/loop_wrap = true
tracks/0/imported = false
tracks/0/enabled = true
tracks/0/keys = {
"times": PoolRealArray( 0 ),
"transitions": PoolRealArray( 1 ),
"update": 1,
"values": [ true ]
}
tracks/1/type = "value"
tracks/1/path = NodePath("Particles2D:emitting")
tracks/1/interp = 1
tracks/1/loop_wrap = true
tracks/1/imported = false
tracks/1/enabled = true
tracks/1/keys = {
"times": PoolRealArray( 0 ),
"transitions": PoolRealArray( 1 ),
"update": 1,
"values": [ true ]
}
tracks/2/type = "method"
tracks/2/path = NodePath(".")
tracks/2/interp = 1
tracks/2/loop_wrap = true
tracks/2/imported = false
tracks/2/enabled = true
tracks/2/keys = {
"times": PoolRealArray( 2 ),
"transitions": PoolRealArray( 1 ),
"values": [ {
"args": [  ],
"method": "queue_free"
} ]
}

[sub_resource type="Gradient" id=2]
offsets = PoolRealArray( 0, 0.498024, 1 )
colors = PoolColorArray( 1, 1, 1, 0, 1, 1, 1, 1, 1, 1, 1, 0 )

[sub_resource type="GradientTexture" id=3]
gradient = SubResource( 2 )

[sub_resource type="Gradient" id=4]

[sub_resource type="GradientTexture" id=5]
gradient = SubResource( 4 )

[sub_resource type="ParticlesMaterial" id=6]
trail_color_modifier = SubResource( 5 )
flag_disable_z = true
direction = Vector3( 0, -1, 0 )
gravity = Vector3( 0, 98, 0 )
initial_velocity = 100.0
initial_velocity_random = 0.5
angular_velocity = 50.0
angular_velocity_random = 1.0
orbit_velocity = 0.0
orbit_velocity_random = 0.0
angle_random = 1.0
scale = 4.0
scale_random = 1.0
color_ramp = SubResource( 3 )

[node name="explosion" type="Node2D"]
script = ExtResource( 2 )

[node name="AudioStreamPlayer2D" type="AudioStreamPlayer2D" parent="."]
stream = ExtResource( 1 )
attenuation = 0.812252
bus = "SFX"

[node name="AnimationPlayer" type="AnimationPlayer" parent="."]
autoplay = "explode"
anims/explode = SubResource( 1 )

[node name="Particles2D" type="Particles2D" parent="."]
emitting = false
amount = 64
lifetime = 2.0
one_shot = true
speed_scale = 2.0
explosiveness = 1.0
process_material = SubResource( 6 )
